[
	{
		"id": 1,
		"image": "car-compact-1.png",
		"logo": "alamo.png",
		"type": "ECAR",
		"category": {
			"parent": "4x4",
			"name": "Compact"
		},
		"manufacturer": "Opel",
		"model": "Meriva",
		"currency": "CHF",
		"price": 39,
		"features": [
			{
				"code": 0,
				"name": "5 Passengers"
			}
		],
		"gallery_images" : [
			{
				"name": "opel-meriva-1.jpg"
			},
			{
				"name": "opel-meriva-2.jpg"
			},
			{
				"name": "opel-meriva-3.jpg"
			},
			{
				"name": "opel-meriva-4.jpg"
			}
		],
        "description" : [
            {
                "seats" : 5,
                "bags"  : 1,
                "doors" : 3,
                "manual": "Manual",
                "mixed" : "Mixed",
                "ac": "Air Con"
            }
        ]
	},

	{
		"id": 2,
		"image": "car-compact-2.png",
		"logo": "hertz.png",
		"type": "CCAR",
		"category": {
			"parent": "4x4",
			"name": "Compact"
		},
		"manufacturer": "Renault",
		"model": "Scenic",
		"currency": "CHF",
		"price": 39,
		"features": [
			{
				"code": 0,
				"name": "5 Passengers"
			}
		],
		"gallery_images" : [
			{
				"name": "renault-scenic-1.jpg"
			},
			{
				"name": "renault-scenic-2.jpg"
			},
			{
				"name": "renault-scenic-3.jpg"
			}
		],
        "description" : [
            {
                "seats" : 4,
                "bags"  : 2,
                "doors" : 5,
                "manual": "Manual",
                "mixed" : "Mixed",
                "ac": "Air Con"
            }
        ]
	},

	{
		"id": 3,
		"image": "car-compact-3.png",
		"logo": "budget.png",
		"type": "ICAR",
		"category": {
			"parent": "4x4",
			"name": "Compact"
		},
		"manufacturer": "Skoda",
		"model": "Fabia",
		"currency": "CHF",
		"price": 44,
		"features": [
			{
				"code": 0,
				"name": "5 Passengers"
			}
		],
		"gallery_images" : [
			{
				"name": "skoda-fabia-1.jpg"
			},
			{
				"name": "skoda-fabia-2.jpg"
			}
		],
        "description" : [
            {
                "seats" : 4,
                "bags"  : 2,
                "doors" : 5,
                "manual": "Manual",
                "mixed" : "Mixed",
                "ac": "Air Con"
            }
        ]
	},

	{
		"id": 4,
		"image": "car-compact-4.png",
		"logo": "dollar.png",
		"type": "SCAR",
		"category": {
			"parent": "4x4",
			"name": "Compact"
		},
		"manufacturer": "VW",
		"model": "Golf",
		"currency": "CHF",
		"price": 46,
		"features": [
			{
				"code": 0,
				"name": "5 Passengers"
			}
		],
		"gallery_images" : [
			{
				"name": "vw-golf-1.jpg"
			},
			{
				"name": "vw-golf-2.jpg"
			},
			{
				"name": "vw-golf-3.jpg"
			},
			{
				"name": "vw-golf-4.jpg"
			}
		],
        "description" : [
            {
                "seats" : 5,
                "bags"  : 2,
                "doors" : 5,
                "manual": "Manual",
                "mixed" : "Mixed",
                "ac": "Air Con"
            }
        ]
	},

	{
		"id": 5,
		"image": "car-compact-5.png",
		"logo": "enterprise.png",
		"type": "FCAR",
		"category": {
			"parent": "4x4",
			"name": "Compact"
		},
		"manufacturer": "Opel",
		"model": "Astra",
		"currency": "CHF",
		"price": 46,
		"features": [
			{
				"code": 0,
				"name": "5 Passengers"
			}
		],
		"gallery_images" : [
			{
				"name": "opel-astra-1.jpg"
			},
			{
				"name": "opel-astra-2.jpg"
			},
			{
				"name": "opel-astra-3.jpg"
			}
		],
        "description" : [
            {
                "seats" : 5,
                "bags"  : 2,
                "doors" : 5,
                "manual": "Manual",
                "mixed" : "Mixed",
                "ac": "Air Con"
            }
        ]
	},

	{
		"id": 6,
		"image": "car-compact-6.png",
		"logo": "europcar.png",
		"type": "PCAR",
		"category": {
			"parent": "4x4",
			"name": "Compact"
		},
		"manufacturer": "Ford",
		"model": "Grand C-Max",
		"currency": "CHF",
		"price": 59,
		"features": [
			{
				"code": 0,
				"name": "5 Passengers"
			}
		],
		"gallery_images" : [
			{
				"name": "ford-grand-1.jpg"
			},
			{
				"name": "ford-grand-2.jpg"
			},
			{
				"name": "ford-grand-3.jpg"
			},
			{
				"name": "ford-grand-4.jpg"
			}
		],
        "description" : [
            {
                "seats" : 7,
                "bags"  : 3,
                "doors" : 5,
                "manual": "Manual",
                "mixed" : "Mixed",
                "ac": "Air Con"
            }
        ]
	},

	{
		"id": 7,
		"image": "car-standard-1.png",
		"logo": "firefly.png",
		"type": "LCAR",
		"category": {
			"parent": "Standard",
			"name": "Standard"
		},
		"manufacturer": "Opel",
		"model": "Insignia",
		"currency": "CHF",
		"price": 70,
		"features": [
			{
				"code": 0,
				"name": "5 Passengers"
			}
		],
		"gallery_images" : [
			{
				"name": "opel-insignia-1.jpg"
			},
			{
				"name": "opel-insignia-2.jpg"
			},
			{
				"name": "opel-insignia-3.jpg"
			}
		],
        "description" : [
            {
                "seats" : 5,
                "bags"  : 3,
                "doors" : 5,
                "manual": "Manual",
                "mixed" : "Mixed",
                "ac": "Air Con"
            }
        ]
	},

	{
		"id": 8,
		"image": "car-standard-2.png",
		"logo": "avis.png",
		"type": "MVAR",
		"category": {
			"parent": "Standard",
			"name": "Standard"
		},
		"manufacturer": "BMW",
		"model": "3 Series",
		"currency": "CHF",
		"price": 110,
		"features": [
			{
				"code": 0,
				"name": "5 Passengers"
			}
		],
		"gallery_images" : [
			{
				"name": "bmw-series3-1.jpg"
			},
			{
				"name": "bmw-series3-2.jpg"
			},
			{
				"name": "bmw-series3-3.jpg"
			}
		],
        "description" : [
            {
                "seats" : 5,
                "bags"  : 3,
                "doors" : 5,
                "manual": "Automatic",
                "mixed" : "Mixed",
                "ac": "Air Con"
            }
        ]
	},

	{
		"id": 9,
		"image": "car-standard-3.png",
		"logo": "national.png",
		"type": "IFAR",
		"category": {
			"parent": "Standard",
			"name": "Standard"
		},
		"manufacturer": "VW",
		"model": "Passat SW",
		"currency": "CHF",
		"price": 125,
		"features": [
			{
				"code": 0,
				"name": "5 Passengers"
			}
		],
		"gallery_images" : [
			{
				"name": "vw-passatsw-1.jpg"
			},
			{
				"name": "vw-passatsw-2.jpg"
			}
		],
        "description" : [
            {
                "seats" : 5,
                "bags"  : 2,
                "doors" : 5,
                "manual": "Manual",
                "mixed" : "Mixed",
                "ac": "Air Con"
            }
        ]
	},

	{
		"id": 10,
		"image": "car-standard-4.png",
		"logo": "sixt.png",
		"type": "SFAR",
		"category": {
			"parent": "Standard",
			"name": "Standard"
		},
		"manufacturer": "BMW",
		"model": "5 Series",
		"currency": "CHF",
		"price": 180,
		"features": [
			{
				"code": 0,
				"name": "5 Passengers"
			}
		],
		"gallery_images" : [
			{
				"name": "bmw-series5-1.jpg"
			},
			{
				"name": "bmw-series5-2.jpg"
			}
		],
        "description" : [
            {
                "seats" : 5,
                "bags"  : 3,
                "doors" : 4,
                "manual": "Automatic",
                "mixed" : "Mixed",
                "ac": "Air Con"
            }
        ]
	},

	{
		"id": 11,
		"image": "car-standard-5.png",
		"logo": "thrifty.png",
		"type": "FFAR",
		"category": {
			"parent": "Standard",
			"name": "Standard"
		},
		"manufacturer": "Mercedes",
		"model": "E Classe",
		"currency": "CHF",
		"price": 180,
		"features": [
			{
				"code": 0,
				"name": "5 Passengers"
			}
		],
		"gallery_images" : [
			{
				"name": "mercedes-eclasse-1.jpg"
			},
			{
				"name": "mercedes-eclasse-2.jpg"
			}
		],
        "description" : [
            {
                "seats" : 5,
                "bags"  : 3,
                "doors" : 4,
                "manual": "Automatic",
                "mixed" : "Mixed",
                "ac": "Air Con"
            }
        ]
	},

	{
		"id": 12,
		"image": "car-standard-6.png",
		"logo": "avis.png",
		"type": "UXAR",
		"category": {
			"parent": "Standard",
			"name": "Standard"
		},
		"manufacturer": "BMW",
		"model": "523 Touring SW",
		"currency": "CHF",
		"price": 180,
		"features": [
			{
				"code": 0,
				"name": "5 Passengers"
			}
		],
		"gallery_images" : [
			{
				"name": "bmw-523-1.jpg"
			}
		],
        "description" : [
            {
                "seats" : 5,
                "bags"  : 3,
                "doors" : 4,
                "manual": "Automatic",
                "mixed" : "Mixed",
                "ac": "Air Con"
            }
        ]
	},

	{
		"id": 13,
		"image": "car-standard-7.png",
		"logo": "alamo.png",
		"type": "LFAR",
		"category": {
			"parent": "Standard",
			"name": "Standard"
		},
		"manufacturer": "Mercedes",
		"model": "S Class",
		"currency": "CHF",
		"price": 350,
		"features": [
			{
				"code": 0,
				"name": "5 Passengers"
			}
		],
		"gallery_images" : [
			{
				"name": "mercedes-sclass-1.jpg"
			},
			{
				"name": "mercedes-sclass-2.jpg"
			},
			{
				"name": "mercedes-sclass-3.jpg"
			}
		],
        "description" : [
            {
                "seats" : 5,
                "bags"  : 3,
                "doors" : 4,
                "manual": "Automatic",
                "mixed" : "Mixed",
                "ac": "Air Con"
            }
        ]
	},

	{
		"id": 14,
		"image": "car-standard-8.png",
		"logo": "budget.png",
		"type": "SPAR",
		"category": {
			"parent": "Standard",
			"name": "Standard"
		},
		"manufacturer": "Renault",
		"model": "Traffic",
		"currency": "CHF",
		"price": 200,
		"features": [
			{
				"code": 0,
				"name": "5 Passengers"
			}
		],
		"gallery_images" : [
			{
				"name": "renault-trafic-1.jpg"
			},
			{
				"name": "renault-trafic-2.jpg"
			},
			{
				"name": "renault-trafic-3.jpg"
			}
		],
        "description" : [
            {
                "seats" : 9,
                "bags"  : 3,
                "doors" : 5,
                "manual": "Manual",
                "mixed" : "Mixed",
                "ac": "Air Con"
            }
        ]
	},

	{
		"id": 15,
		"image": "car-4x4-1.png",
		"logo": "dollar.png",
		"type": "PPAR",
		"category": {
			"parent": "Outro",
			"name": "4x4"
		},
		"manufacturer": "Ford",
		"model": "Kuga",
		"currency": "CHF",
		"price": 59,
		"features": [
			{
				"code": 0,
				"name": "5 Passengers"
			}
		],
		"gallery_images" : [
			{
				"name": "ford-kuga-1.jpg"
			},
			{
				"name": "ford-kuga-2.jpg"
			},
			{
				"name": "ford-kuga-3.jpg"
			}
		],
        "description" : [
            {
                "seats" : 5,
                "bags"  : 3,
                "doors" : 5,
                "manual": "Manaual",
                "mixed" : "Mixed",
                "ac": "Air Con"
            }
        ]
	},

	{
		"id": 16,
		"image": "car-4x4-2.png",
		"logo": "enterprise.png",
		"type": "ECAR",
		"category": {
			"parent": "Outro",
			"name": "4x4"
		},
		"manufacturer": "Audi",
		"model": "Q5",
		"currency": "CHF",
		"price": 90,
		"features": [
			{
				"code": 0,
				"name": "5 Passengers"
			}
		],
		"gallery_images" : [
			{
				"name": "audi-q5-1.jpg"
			},
			{
				"name": "audi-q5-2.jpg"
			},
			{
				"name": "audi-q5-3.jpg"
			}
		],
        "description" : [
            {
                "seats" : 5,
                "bags"  : 3,
                "doors" : 4,
                "manual": "Automatic",
                "mixed" : "Mixed",
                "ac": "Air Con"
            }
        ]
	},

	{
		"id": 17,
		"image": "car-4x4-3.png",
		"logo": "europcar.png",
		"type": "CCAR",
		"category": {
			"parent": "Outro",
			"name": "4x4"
		},
		"manufacturer": "Range Rover",
		"model": "Evoque",
		"currency": "CHF",
		"price": 120,
		"features": [
			{
				"code": 0,
				"name": "5 Passengers"
			}
		],
		"gallery_images" : [
			{
				"name": "evoque-1.jpg"
			},
			{
				"name": "evoque-2.jpg"
			},
			{
				"name": "evoque-3.jpg"
			}
		]
	},

	{
		"id": 18,
		"image": "car-4x4-4.png",
		"logo": "firefly.png",
		"type": "ICAR",
		"category": {
			"parent": "Outro",
			"name": "4x4"
		},
		"manufacturer": "Porsche",
		"model": "Cayenne",
		"currency": "CHF",
		"price": 220,
		"features": [
			{
				"code": 0,
				"name": "5 Passengers"
			}
		],
		"gallery_images" : [
			{
				"name": "porsche-cayenne-1.jpg"
			},
			{
				"name": "porsche-cayenne-2.jpg"
			},
			{
				"name": "porsche-cayenne-3.jpg"
			}
		]
	},

	{
		"id": 19,
		"image": "car-4x4-5.png",
		"logo": "hertz.png",
		"type": "SCAR",
		"category": {
			"parent": "Outro",
			"name": "4x4"
		},
		"manufacturer": "Range Rover",
		"model": "Sport HSE",
		"currency": "CHF",
		"price": 220,
		"features": [
			{
				"code": 0,
				"name": "5 Passengers"
			}
		],
		"gallery_images" : [
			{
				"name": "sport-hse-1.jpg"
			}
		]
	},

	{
		"id": 20,
		"image": "car-4x4-6.png",
		"logo": "national.png",
		"type": "FCAR",
		"category": {
			"parent": "Outro",
			"name": "4x4"
		},
		"manufacturer": "Range Rover",
		"model": "Vogue",
		"currency": "CHF",
		"price": 300,
		"features": [
			{
				"code": 0,
				"name": "5 Passengers"
			}
		],
		"gallery_images" : [
			{
				"name": "vogue-1.jpg"
			},
			{
				"name": "vogue-2.jpg"
			},
			{
				"name": "vogue-3.jpg"
			}
		]
	},

	{
		"id": 21,
		"image": "car-4x4-7.png",
		"logo": "sixt.png",
		"type": "PCAR",
		"category": {
			"parent": "Outro",
			"name": "4x4"
		},
		"manufacturer": "Mercedes",
		"model": "Viano",
		"currency": "CHF",
		"price": 180,
		"features": [
			{
				"code": 0,
				"name": "5 Passengers"
			}
		],
		"gallery_images" : [
			{
				"name": "viano-1.jpg"
			},
			{
				"name": "viano-2.jpg"
			},
			{
				"name": "viano-3.jpg"
			}
		]
	}
]
