[
	{
		"id": 0,
		"picture": "car-results-drive-01.jpg",
		"title": "VW Golf",
		"company": {
			"code": 0,
			"name": "Vetron"
		},
		"features": [
			{
				"code": 0,
				"name": "5 Passengers"
			},
			{
				"code": 1,
				"name": "2 Small Suitcases"
			},
			{
				"code": 2,
				"name": "Automatic Transmission"
			},
			{
				"code": 3,
				"name": "20 miles/gallon or better"
			}
		],
		"currency": "CHF",
		"price": {
			"total": 883,
			"daily": 76
		}
	},
	{
		"id": 111,
		"picture": "car-results-drive-02.jpg",
		"title": "Chevy Malibu",
		"company": {
			"code": 1,
			"name": "Musaphics"
		},
		"features": [
			{
				"code": 0,
				"name": "5 Passengers"
			},
			{
				"code": 1,
				"name": "2 Small Suitcases"
			},
			{
				"code": 2,
				"name": "Automatic Transmission"
			},
			{
				"code": 3,
				"name": "30 miles/gallon or better"
			}
		],
		"currency": "CHF",
		"price": {
			"total": 1000,
			"daily": 121
		}
	},
	{
		"id": 222,
		"picture": "car-results-drive-03.jpg",
		"title": "Ford Focus",
		"company": {
			"code": 2,
			"name": "Menbrain"
		},
		"features": [
			{
				"code": 0,
				"name": "5 Passengers"
			},
			{
				"code": 1,
				"name": "2 Small Suitcases"
			},
			{
				"code": 2,
				"name": "Automatic Transmission"
			},
			{
				"code": 3,
				"name": "39 miles/gallon or better"
			}
		],
		"currency": "CHF",
		"price": {
			"total": 341,
			"daily": 56
		}
	},
	{
		"id": 333,
		"picture": "car-results-drive-04.jpg",
		"title": "Audi A1",
		"company": {
			"code": 3,
			"name": "Eclipto"
		},
		"features": [
			{
				"code": 0,
				"name": "5 Passengers"
			},
			{
				"code": 1,
				"name": "2 Small Suitcases"
			},
			{
				"code": 2,
				"name": "Automatic Transmission"
			},
			{
				"code": 3,
				"name": "53 miles/gallon or better"
			}
		],
		"currency": "CHF",
		"price": {
			"total": 982,
			"daily": 103
		}
	},
	{
		"id": 444,
		"picture": "car-results-drive-01.jpg",
		"title": "VW Golf",
		"company": {
			"code": 0,
			"name": "Vetron"
		},
		"features": [
			{
				"code": 0,
				"name": "5 Passengers"
			},
			{
				"code": 1,
				"name": "2 Small Suitcases"
			},
			{
				"code": 2,
				"name": "Automatic Transmission"
			},
			{
				"code": 3,
				"name": "20 miles/gallon or better"
			}
		],
		"currency": "CHF",
		"price": {
			"total": 883,
			"daily": 76
		}
	},
	{
		"id": 5553,
		"picture": "car-results-drive-02.jpg",
		"title": "Chevy Malibu",
		"company": {
			"code": 1,
			"name": "Musaphics"
		},
		"features": [
			{
				"code": 0,
				"name": "5 Passengers"
			},
			{
				"code": 1,
				"name": "2 Small Suitcases"
			},
			{
				"code": 2,
				"name": "Automatic Transmission"
			},
			{
				"code": 3,
				"name": "30 miles/gallon or better"
			}
		],
		"currency": "CHF",
		"price": {
			"total": 1000,
			"daily": 121
		}
	},
	{
		"id": 6564,
		"picture": "car-results-drive-03.jpg",
		"title": "Ford Focus",
		"company": {
			"code": 2,
			"name": "Menbrain"
		},
		"features": [
			{
				"code": 0,
				"name": "5 Passengers"
			},
			{
				"code": 1,
				"name": "2 Small Suitcases"
			},
			{
				"code": 2,
				"name": "Automatic Transmission"
			},
			{
				"code": 3,
				"name": "39 miles/gallon or better"
			}
		],
		"currency": "CHF",
		"price": {
			"total": 341,
			"daily": 56
		}
	},
	{
		"id": 739,
		"picture": "car-results-drive-04.jpg",
		"title": "Audi A1",
		"company": {
			"code": 3,
			"name": "Eclipto"
		},
		"features": [
			{
				"code": 0,
				"name": "5 Passengers"
			},
			{
				"code": 1,
				"name": "2 Small Suitcases"
			},
			{
				"code": 2,
				"name": "Automatic Transmission"
			},
			{
				"code": 3,
				"name": "53 miles/gallon or better"
			}
		],
		"currency": "CHF",
		"price": {
			"total": 982,
			"daily": 103
		}
	}
]
